Introduction to DaQAPO • daqapo
…
When the timestamps are edited to the desired format, the activity log object can be created along with the required mapping.

hospital %>%
  activitylog(case_id = "patient_visit_nr",
              activity_id = "activity",
              resource_id = "originator",
              lifecycle_ids = c("start", "complete")) -> hospital

Preparing an Event Log

With event logs, things are a bit more complex. In an event log, each row represents only a part of an activity instance. Therefore, more complex data transformations must be executed and several problems could arise. In this section, we will use an event log variant of the activity log used earlier, named hospital_events.

hospital_events
#> # A tibble: 106 x 8
#>    patient_visit_nr activity originator event_lifecycle~ timestamp triagecode
#>               <dbl> <chr>    <chr>      <chr>            <chr>          <dbl>
#>  1              510 registr~ Clerk 9    start            20/11/20~          3
#>  2              510 registr~ Clerk 9    complete         20/11/20~          3
#>  3              510 Triage   Nurse 27   start            20/11/20~          3
#>  4              510 Triage   Nurse 27   complete         20/11/20~          3
#>  5              510 Clinica~ Doctor 7   start            20/11/20~         NA
#>  6              510 Clinica~ Doctor 4   complete         20/11/20~         NA
#>  7              512 Registr~ Clerk 12   start            20/11/20~          3
#>  8              512 Registr~ Clerk 12   complete         20/11/20~          3
#>  9              512 Triage   Nurse 27   start            20/11/20~          3
#> 10              512 Triage   Nurse 27   complete         20/11/20~          3
#> # ... with 96 more rows, and 2 more variables: specialization <chr>,
#> #   event_matching <dbl>
…
hospital %>%
  detect_unique_values(column_labels = c("activity", "originator"))
#> *** OUTPUT ***
#> Distinct entries are computed for the following columns: 
#> activity - originator
#> # A tibble: 22 x 2
#>    activity      originator
#>    <chr>         <chr>     
#>  1 registration  Clerk 9   
#>  2 Registration  Clerk 12  
#>  3 Triage        Nurse 27  
#>  4 Clinical exam Doctor 7  
#>  5 Triage        Nurse 17  
#>  6 Registration  Clerk 6   
#>  7 Registration  Clerk 9   
#>  8 Trage         Nurse 17  
#>  9 Clinical exam Doctor 4  
#> 10 Registration  Clerk 3   
#> # ... with 12 more rows
…
